<svg
   xmlns:dc="http://purl.org/dc/elements/1.1/"
   xmlns:cc="http://creativecommons.org/ns#"
   xmlns:rdf="http://www.w3.org/1999/02/22-rdf-syntax-ns#"
   xmlns:svg="http://www.w3.org/2000/svg"
   xmlns="http://www.w3.org/2000/svg"
   xmlns:sodipodi="http://sodipodi.sourceforge.net/DTD/sodipodi-0.dtd"
   xmlns:inkscape="http://www.inkscape.org/namespaces/inkscape"
   version="1.1"
   id="icon-send"
   width="29"
   height="23"
   viewBox="0 0 29 23">
  <path
     style="fill:#2a86bb;fill-opacity:1;stroke:none;stroke-width:0.05261691;stroke-linecap:butt;stroke-linejoin:miter;stroke-miterlimit:4;stroke-dasharray:none;stroke-opacity:1"
     d="M 0.3097962,0.82011503 C 3.0046281,0.48718343 9.8413931,3.488926 16.441932,5.998593 c 6.466036,2.458526 12.058467,4.106669 12.097086,5.750157 -10.361005,0.0061 -10.277252,-0.141934 -20.9285606,-0.141934 0,0 0.047245,-1.76918 -2.0683004,-4.551175 C 2.9836054,3.691087 0.50155334,3.094313 0.3097962,0.82011503 Z"
     id="path4495" />
  <path
     style="fill:#2766ba;fill-opacity:1;stroke:none;stroke-width:0.05261691;stroke-linecap:butt;stroke-linejoin:miter;stroke-miterlimit:4;stroke-dasharray:none;stroke-opacity:1"
     d="M 0.30979529,22.393517 C 3.0046269,22.726449 9.8413931,19.724706 16.441932,17.21504 c 6.466036,-2.458527 12.058467,-4.106669 12.097086,-5.750158 -10.361005,-0.0061 -10.277252,0.141934 -20.9285606,0.141934 0,0 0.047245,1.76918 -2.0683004,4.551175 -2.5585528,3.364555 -5.04060457,3.961329 -5.23236171,6.235526 z"
     id="path4495-9" />
</svg>
