<svg
   xmlns:dc="http://purl.org/dc/elements/1.1/"
   xmlns:cc="http://creativecommons.org/ns#"
   xmlns:rdf="http://www.w3.org/1999/02/22-rdf-syntax-ns#"
   xmlns:svg="http://www.w3.org/2000/svg"
   xmlns="http://www.w3.org/2000/svg"
   xmlns:sodipodi="http://sodipodi.sourceforge.net/DTD/sodipodi-0.dtd"
   xmlns:inkscape="http://www.inkscape.org/namespaces/inkscape"
   width="18"
   height="18"
   viewBox="0 0 7.9374998 7.9375002"
   version="1.1"
   id="loader-sm">
  <g
     inkscape:label="Layer 1"
     inkscape:groupmode="layer"
     id="layer1"
     transform="translate(0,-289.06248)">
    <path
       id="path4491-4"
       style="color:#000000;font-style:normal;font-variant:normal;font-weight:normal;font-stretch:normal;font-size:medium;line-height:normal;font-family:sans-serif;font-variant-ligatures:normal;font-variant-position:normal;font-variant-caps:normal;font-variant-numeric:normal;font-variant-alternates:normal;font-feature-settings:normal;text-indent:0;text-align:start;text-decoration:none;text-decoration-line:none;text-decoration-style:solid;text-decoration-color:#000000;letter-spacing:normal;word-spacing:normal;text-transform:none;writing-mode:lr-tb;direction:ltr;text-orientation:mixed;dominant-baseline:auto;baseline-shift:baseline;text-anchor:start;white-space:normal;shape-padding:0;clip-rule:nonzero;display:inline;overflow:visible;visibility:visible;opacity:1;isolation:auto;mix-blend-mode:normal;color-interpolation:sRGB;color-interpolation-filters:linearRGB;solid-color:#000000;solid-opacity:1;vector-effect:none;fill:#303d3c;fill-opacity:1;fill-rule:nonzero;stroke:none;stroke-width:0.29452381;stroke-linecap:butt;stroke-linejoin:miter;stroke-miterlimit:4;stroke-dasharray:none;stroke-dashoffset:0;stroke-opacity:1;color-rendering:auto;image-rendering:auto;shape-rendering:auto;text-rendering:auto;enable-background:accumulate"
       d="m 3.968353,289.94391 c -1.7031995,0 -3.08628774,1.385 -3.08628774,3.08809 0,1.70307 1.38308824,3.08607 3.08628774,3.08607 1.7031995,0 3.0882944,-1.383 3.0882944,-3.08607 0,-1.70309 -1.3850949,-3.08809 -3.0882944,-3.08809 z m 0,0.29496 c 1.5440216,0 2.793311,1.24921 2.793311,2.79313 0,1.5439 -1.2492894,2.7911 -2.793311,2.7911 -1.5440217,0 -2.7913044,-1.2472 -2.7913045,-2.7911 0,-1.54392 1.2472828,-2.79313 2.7913045,-2.79313 z m 3.971e-4,-1.17639 C 1.7785228,289.06252 3.9339614e-5,290.84088 2.9613546e-8,293.03096 -2.6499039e-4,295.22126 1.7783082,296.99994 3.9687501,296.99998 c 2.1904418,-4e-5 3.9690149,-1.77872 3.9687499,-3.96902 -3.91e-5,-2.19008 -1.7785225,-3.96844 -3.9687499,-3.96848 z m 0,0.29412 c 2.0310531,3e-5 3.6745747,1.64345 3.6746111,3.67436 2.458e-4,2.03112 -1.6433579,3.67486 -3.6746111,3.6749 -2.0312533,-4e-5 -3.67485704,-1.64378 -3.67461127,-3.6749 3.645e-5,-2.03091 1.64355807,-3.67433 3.67461127,-3.67436 z" />
    <path
       style="opacity:1;fill:#2766ba;fill-opacity:1;stroke:none;stroke-width:1.17833316;stroke-miterlimit:4;stroke-dasharray:none;stroke-opacity:1"
       d="M 15 1.1992188 A 13.8 13.8 0 0 0 1.1992188 15 A 13.8 13.8 0 0 0 1.3476562 16.878906 L 3.3300781 16.652344 A 11.8 11.8 0 0 1 3.1992188 15 A 11.8 11.8 0 0 1 15 3.1992188 A 11.8 11.8 0 0 1 21.376953 5.0878906 L 22.572266 3.4765625 A 13.8 13.8 0 0 0 15 1.1992188 z "
       transform="matrix(0.26458333,0,0,0.26458333,0,289.06248)" />
  </g>
</svg>
